%YAML 1.1
%TAG !u! tag:unity3d.com,2011:
--- !u!1045 &1
EditorBuildSettings:
  m_ObjectHideFlags: 0
  serializedVersion: 2
  m_Scenes:
  - enabled: 0
    path: Assets/toio-sdk/Samples/Sample_WebGL/Sample_UI/Sample_UI.unity
    guid: 076f8717a112b440a9716cdb1a89e1f4
  - enabled: 0
    path: Assets/toio-sdk/Tutorials/1.Basic/0.BasicScene/0.BasicScene.unity
    guid: e6ea298340acd41fd8971c8ed14186c5
  - enabled: 0
    path: Assets/Development Floder/Scene/Tonopoly.unity
    guid: b1179bf553dc3b943be6a936ff328e6a
  - enabled: 0
    path: Assets/toio-sdk/Tutorials/1.Basic/4.toioID/4.toioID.unity
    guid: 4126b427bc3aadf4fa75dd13ac1b6d79
  - enabled: 0
    path: Assets/toio-sdk/Tutorials/3.Advanced-Navigator/1.Navi2TargetScene/1.Navi2TargetScene.unity
    guid: 64a71c4dec0dd148d8e90176d32fae5f
  - enabled: 1
    path: Assets/Development Floder/Scene/MultiMat.unity
    guid: 9d6210fbd70ae374497ee236d433a32d
  m_configObjects: {}
